STA314 Materials
…
R for data science chapter 25: Many Models

This is beyond the scope of what we teach, but you might find it very useful in practice:

# We will be using the modelr and gapminder libraries for this part
gapminder

## # A tibble: 1,704 x 6
##    country     continent  year lifeExp      pop gdpPercap
##    <fct>       <fct>     <int>   <dbl>    <int>     <dbl>
##  1 Afghanistan Asia       1952    28.8  8425333      779.
##  2 Afghanistan Asia       1957    30.3  9240934      821.
##  3 Afghanistan Asia       1962    32.0 10267083      853.
##  4 Afghanistan Asia       1967    34.0 11537966      836.
##  5 Afghanistan Asia       1972    36.1 13079460      740.
##  6 Afghanistan Asia       1977    38.4 14880372      786.
##  7 Afghanistan Asia       1982    39.9 12881816      978.
##  8 Afghanistan Asia       1987    40.8 13867957      852.
##  9 Afghanistan Asia       1992    41.7 16317921      649.
## 10 Afghanistan Asia       1997    41.8 22227415      635.
## # … with 1,694 more rows
…
It’s really hard to see what is going on!

Solution: Do it by country and nest all of the results in a table

# Create a tibble that separates each country's data into a separate tibble:
by_country <- gapminder %>% 
  group_by(country, continent) %>% 
  nest()
# We group by country and continent since for a country continent is fixed and we 
# want to carry on another variable

# View the data:
by_country

## # A tibble: 142 x 3
##    country     continent data             
##    <fct>       <fct>     <list>           
##  1 Afghanistan Asia      <tibble [12 × 4]>
##  2 Albania     Europe    <tibble [12 × 4]>
##  3 Algeria     Africa    <tibble [12 × 4]>
##  4 Angola      Africa    <tibble [12 × 4]>
##  5 Argentina   Americas  <tibble [12 × 4]>
##  6 Australia   Oceania   <tibble [12 × 4]>
##  7 Austria     Europe    <tibble [12 × 4]>
##  8 Bahrain     Asia      <tibble [12 × 4]>
##  9 Bangladesh  Asia      <tibble [12 × 4]>
## 10 Belgium     Europe    <tibble [12 × 4]>
## # … with 132 more rows
…
# First we define the function that creates a linear model:
country_model <- function(df) {
  lm(lifeExp ~ year, data = df)
}

# Then we can abuse the purrr package to apply that function to each of 
# the elements of a list:
by_country <- by_country %>%
    mutate(model = map(data, country_model))

# Now the column "model" in the by_country tibble contains all of the linear models we just fit!
by_country

## # A tibble: 142 x 4
##    country     continent data              model   
##    <fct>       <fct>     <list>            <list>  
##  1 Afghanistan Asia      <tibble [12 × 4]> <S3: lm>
##  2 Albania     Europe    <tibble [12 × 4]> <S3: lm>
##  3 Algeria     Africa    <tibble [12 × 4]> <S3: lm>
##  4 Angola      Africa    <tibble [12 × 4]> <S3: lm>
##  5 Argentina   Americas  <tibble [12 × 4]> <S3: lm>
##  6 Australia   Oceania   <tibble [12 × 4]> <S3: lm>
##  7 Austria     Europe    <tibble [12 × 4]> <S3: lm>
##  8 Bahrain     Asia      <tibble [12 × 4]> <S3: lm>
##  9 Bangladesh  Asia      <tibble [12 × 4]> <S3: lm>
## 10 Belgium     Europe    <tibble [12 × 4]> <S3: lm>
## # … with 132 more rows
…
